<?xml version="1.0" encoding="UTF-8" standalone="no"?>
<svg
   xmlns:dc="http://purl.org/dc/elements/1.1/"
   xmlns:cc="http://creativecommons.org/ns#"
   xmlns:rdf="http://www.w3.org/1999/02/22-rdf-syntax-ns#"
   xmlns:svg="http://www.w3.org/2000/svg"
   xmlns="http://www.w3.org/2000/svg"
   xmlns:sodipodi="http://sodipodi.sourceforge.net/DTD/sodipodi-0.dtd"
   xmlns:inkscape="http://www.inkscape.org/namespaces/inkscape"
   viewBox="0 0 24 24"
   version="1.1"
   id="svg4"
   sodipodi:docname="pluie3.svg"
   inkscape:version="0.92.4 (5da689c313, 2019-01-14)">
  <metadata
     id="metadata10">
    <rdf:RDF>
      <cc:Work
         rdf:about="">
        <dc:format>image/svg+xml</dc:format>
        <dc:type
           rdf:resource="http://purl.org/dc/dcmitype/StillImage" />
      </cc:Work>
    </rdf:RDF>
  </metadata>
  <defs
     id="defs8" />
  <sodipodi:namedview
     pagecolor="#ffffff"
     bordercolor="#666666"
     borderopacity="1"
     objecttolerance="10"
     gridtolerance="10"
     guidetolerance="10"
     inkscape:pageopacity="0"
     inkscape:pageshadow="2"
     inkscape:window-width="1461"
     inkscape:window-height="739"
     id="namedview6"
     showgrid="false"
     inkscape:zoom="9.8333333"
     inkscape:cx="-8.6440678"
     inkscape:cy="12"
     inkscape:window-x="0"
     inkscape:window-y="0"
     inkscape:window-maximized="0"
     inkscape:current-layer="svg4" />
  <path
     d="M21.242,7.757A5.96,5.96,0,0,1,23,12a5,5,0,0,1-1.693,3.75,1,1,0,0,1-1.323-1.5A3,3,0,0,0,21,12a4.03,4.03,0,0,0-4.083-4,3.686,3.686,0,0,0-2.376.873,1,1,0,0,1-1.606-.635A4.979,4.979,0,0,0,7.787,4,5.194,5.194,0,0,0,3,9.271a5.7,5.7,0,0,0,2.724,4.878,1,1,0,0,1-1.051,1.7A7.687,7.687,0,0,1,1,9.271,7.212,7.212,0,0,1,7.705,2.006a6.975,6.975,0,0,1,6.838,4.518A5.565,5.565,0,0,1,17.021,6h0A5.947,5.947,0,0,1,21.242,7.757ZM10,21V15a1,1,0,0,0-2,0v6a1,1,0,0,0,2,0Zm7,1a1,1,0,0,0,1-1V15a1,1,0,0,0-2,0v6A1,1,0,0,0,17,22Zm-3-4V12a1,1,0,0,0-2,0v6a1,1,0,0,0,2,0Z"
     id="path2"
     style="fill:#327786;fill-opacity:1" />
</svg>
